<?xml version="1.0" encoding="UTF-8" standalone="no"?>
<svg
   xmlns:dc="http://purl.org/dc/elements/1.1/"
   xmlns:cc="http://creativecommons.org/ns#"
   xmlns:rdf="http://www.w3.org/1999/02/22-rdf-syntax-ns#"
   xmlns:svg="http://www.w3.org/2000/svg"
   xmlns="http://www.w3.org/2000/svg"
   xmlns:xlink="http://www.w3.org/1999/xlink"
   xmlns:sodipodi="http://sodipodi.sourceforge.net/DTD/sodipodi-0.dtd"
   xmlns:inkscape="http://www.inkscape.org/namespaces/inkscape"
   id="SVGRoot"
   version="1.1"
   viewBox="0 0 1675 980"
   height="980"
   width="1675"
   inkscape:version="1.0 (4035a4fb49, 2020-05-01)"
   sodipodi:docname="video01-01-cover-overview.svg">
  <defs
     id="defs18" />
  <sodipodi:namedview
     id="base"
     pagecolor="#ffffff"
     bordercolor="#666666"
     borderopacity="1.0"
     inkscape:pageopacity="0.0"
     inkscape:pageshadow="2"
     inkscape:zoom="0.55496249"
     inkscape:cx="950.81011"
     inkscape:cy="471.84632"
     inkscape:document-units="px"
     inkscape:current-layer="layer1"
     inkscape:document-rotation="0"
     showgrid="false"
     inkscape:window-width="1920"
     inkscape:window-height="1016"
     inkscape:window-x="0"
     inkscape:window-y="0"
     inkscape:window-maximized="1" />
  <metadata
     id="metadata21">
    <rdf:RDF>
      <cc:Work
         rdf:about="">
        <dc:format>image/svg+xml</dc:format>
        <dc:type
           rdf:resource="http://purl.org/dc/dcmitype/StillImage" />
        <dc:title></dc:title>
      </cc:Work>
    </rdf:RDF>
  </metadata>
  <g
     inkscape:label="Layer 1"
     inkscape:groupmode="layer"
     id="layer1">
    <image
       y="655.95984"
       x="633.62347"
       width="407.75302"
       height="95.040176"
       preserveAspectRatio="none"
       style="image-rendering:optimizeQuality"
       xlink:href="data:image/png;base64,iVBORw0KGgoAAAANSUhEUgAAAx4AAAC6CAYAAAAgX5tbAAAABHNCSVQICAgIfAhkiAAAIABJREFU eJzs3XlYTevbOPC1q61ZE6XBVMI5pihTCmkuiSSUyHiISsh8TOcYkqFknlKGyFhSIYpIITIdpFJo lGYNdu31+8PV7+3db7HXWs9aa++6P9e1ru/3bPu5n3uP7XutZ+DgOI4BAAAAAAAAAJ0k2E4AAAAA AAAA0PZB4QEAAAAAAACgHRQeAAAAAAAAANpB4QEAAAAAAACgHRQeAAAAAAAAANpB4QEAAAAAAACg HRQeAAAAAAAAANpJsZ1Ae/blyxedtLQ0w7S0NMNPnz51KysrUykvL1f+/v27vLKycrmysnK5qqpq aZ8+fd4bGhqmDR48+LmSklIF23kDAAAAAABAFBQeDMJxnJOSkjLiwoULUy9fvjz5y5cvOkTaczgc 3MDAIN3FxSVi6tSpF3r27PmRrlwBAAAAAABAiQM7l9Ovrq5O5tixY/P37NmzLCcnpwequCYmJg/W rFmz3c7OLgZVTAAAAAAAAOgAhQeNeDwe9+DBg57+/v6rCgoKNOnqZ+jQoU+2bNmywcbGJo6uPgAA AAAAAKACCg+avHr1asDs2bND0tLSDJnqc8qUKRcPHjzo2alTpxKm+gQAAAAAAEAYsKoVYnw+X2LL li0bDA0N05gsOjAMwy5evDhlwIABr2JiYuyY7BcAAAAAAIDfgSseCNXX10vPnj07JDw8fDqbeUhK SjYGBgYuXbJkyX428wAAAAAAAKAJFB6IlJaWqk6cOPFaUlKSKdu5NFmxYsWunTt3ruRwOPAiAwAA AAAAVkHhgUBtba2shYVFfHJysjHbuQhauXLlTn9//1Vs5wEAAAAAANo3mONBEZ/Pl3BzczsrikUH hmHYzp07VwYHB3uxnQcAAAAAAGjf4IoHRcuXL9+9Z8+eZWzn8SuSkpKN0dHR42G5XQAAAAAAwBYo PChISEgwMzc3v4PjOIftXH5HU1Oz4PXr1/1VVVVL2c4FAAAAAAC0PzDUiqTv37/Lz58//5g4FB0Y hmEFBQWavr6+e9nOAwAAAAAAtE9QeJC0cePGzVlZWXps50FEWFjYzPj4eAu28wAAAAAAAO0PDLUi oaioSENXVze7pqZGju1ciBo5cuQjUZ0IDwAAAAAA2i644kFCQECAnzgWHRiGYY8ePRp5584dc7bz AAAAAAAA7Qtc8SCovLxcWUdH58v379/l2c6FLHNz8zsw5AoAAAAAADAJrngQdPXq1UniXHRg2M/V uPLy8rTZzgMAAAAAALQfUHgQFBER4cJ2DlTx+XyJy5cvT2Y7DwAAAAAA0H7AUCsCysrKVDQ0NIp4 PB6X7VyoMjExeZCUlGTKdh4AAAAAAKB9gCseBDx69GhkWyg6MAzDHj9+PKy+vl6a7TwAAAAAAED7 AIUHAWlpaYZs54DKjx8/Orx586Yf23kAAAAAAID2QewKj6SkJNOqqipFNvpuS4UHhrH3eN68edMv Nze3Oxt9AwAAAAAAdohV4XHt2rWJlpaWt21sbOIqKys7Mt1/ZmZmL6b7pNOHDx/0me7z3bt3fS0s LOJHjhz56PXr1/2Z7h8AAAAAALBDbAqPsLCwmVOmTLlYX18vnZycbGxraxvLdPFRWlqqymR/dCsr K1Nhsr/379/3GTdu3N3CwsIuBQUFmmPGjLn3+PHjYUzmAAAAAAAA2CEWhceePXuWeXh4nGpoaJBq ui05OdnYzs4uhslhV0z/UKcbk4/n7du3f4wZM+ZeQUGBZtNtpaWlqlZWVrdSU1OHM5UHAAAAAABg h8gXHidPnpyzYsWKXTiOcwT/7eHDh6NsbGzimCg+GhoapOrq6mTo7odJTF0xysjI6G1hYRFfVFSk IfhvFRUVStbW1jefP38+mIlcAAAAAAAAO0S68AgLC5s5f/78Yy0VHU2Sk5ONmSg+pKSkGmRkZOro 7INpioqKVXT3kZGR0dvMzCwhPz9fq7X7NBUf796960t3PgAAAAAAgB0iW3hcuXLFac6cOSf5fP5v c2ya80F38aGsrFxOZ3ymqaiolNEZX5iio8nXr187W1tb38zLy9OmMycAAAAAAMAOkSw8njx5MtTd 3f10Y2OjpLBtmBh2BYWH8D58+KA/bty4u8IUHU0+ffrUzcHB4Xp1dbUCXXkBAAAAAAB2iFzh8fHj x54ODg7Xa2pq5Ii2pXvYla6ubjYdcdnSs2fPj3TEzczM7GVmZpZA5urF8+fPB7u4uEQ0X0gAAAAA AACIP5EqPMrLy5VtbW1jW5qELCw6V7syNDRMQx2TTXQ8nqysLD2yRUeT2NhY2+XLl+9GmRcAAAAA AGAXB8dxtnPAMAzD+Hy+xIQJE6Ju3LhhjyKesbFxclxcnA3KCdSRkZGOEydOvIYqHpskJSUbKysr O8rJydWgipmbm9t97NixiTk5OT1QxAsJCZnt4eFxCkUspvn5+QWkp6cbkG2/cOHCw5MnT76MMidB e/bsWRYbG2tLtv3+/fuX9OnT5z3KnJrj8/kSzs7Ol6icRAgICPAzMDBIb+3fT548OefMmTMzyMSe N2/ecVdX13Nkc8vPz9eaNWtWKJm2HTp0+IHqu7I1+fn5Wn/99dcRFKv5+fj4BI0fPz76d/ezs7OL IdtfXFycTYcOHX6QaYthGBYfH2/h7++/imx7QRwOBz937pxrp06dSlDFJOvAgQOLr127NhFVvN69 e2ccOHBgMZUYCxcuPJyRkdEbVU5Mmz9//rHp06eHE23333///enj4xNER05NJCQk+EpKShUY9nOI uJKSUoW2tnaepqZmgba2dp6+vv4HDQ2NIjpzoCo+Pt5i27Zta8m0tbKyurV69eodqHOiwt/ff1V8 fLwFmbaHDx9eqKenl4U6J9bgOC4Sx8aNGzdhGIajPIyNjR9WVlYqosqxsLBQQ0JCohF1nmwcRkZG T1C+fjk5Od179uyZjTJHGRmZ2rS0tCFsvzfJHHv27PGl8tjHjRt3h+4cqb5e27ZtW0NnfomJiWOo 5KeiolJaX1/f4Vd9rF27divZ+Fu3bl1L5fFlZmbqUfls0Pncl5eXKxkYGDxH8Tl2c3M7w+fzOcL0 KysrW0O2n5qaGlkqjzksLMwd5fcXhmH4xo0bN9H9Of7dUV1dLa+mplaC8nGh+PsxePDgZ6ifbyYP st9/Dx8+NGY7dwzDcHV19SILC4vby5cv33Xt2jXHioqKjmy/V5sfp0+fnkH2sc2YMeM02/k3P8rK ypQVFBSqyD6epUuX7mX7MaA8RGKo1Y0bN+z/+eefv1HHRT3sSkNDo8jU1DQJRSy2OTs7X0IV6+PH jz1Hjx59/+PHjz1RxcQwDKurq5NxcXGJKC8vV0YZlwnTpk07Lykp2Ui2fWJi4lgiE/OJSk9PN6D6 ekVFRU1AlU9LLly4MJVK+ylTplykcga8vaqtrZV1cHC4TuWKXRM7O7uYU6dOeXA4HBxFbuImODjY i+3FMg4dOrTo27dvamzmAERPcXGxenx8vMXu3buXT5w48Zqamto3U1PTpO3bt6/59OlTN7bza0tO nDgxl8r3wIkTJ+Yyte8aE1gvPIqLi9Xnzp17Qphlc8l48OCBCcoJ5y4uLhEo4rANVeHx6dOnbubm 5nfo+qLKysrSmzdv3nE6YtNJU1OzYPTo0ffJtufz+RKXLl1yRplTc5GRkY5UYzx+/HhYYWFhFxT5 CGpoaJC6fPnyZCoxyAyDaO8aGxsl3dzcziYlJZlSjTV06NAnFy5cmColJdWAIjdxVFpaqnrs2LH5 bPVfX18vvXfvXl+2+gfio6GhQerBgwcma9eu3dazZ8+PFhYW8WfPnnXj8XhctnMTZ3w+X+LgwYOe VGJUVVUphoaGzkKVE9tYLTxwHOfMmTPnJJXJ5MJAudqVs7PzJXE/izpixIgUFOMFP3361M3MzCwB 9ZUOQZcvX558+vRpdzr7oAPVH77nz5+fhioXQSgKDz6fLxEdHT0eRT6C7ty5Y15cXKxOtr2WllZ+ W7k6yRQcxznz588/dvXq1UlUY/Xq1SszOjp6vIKCQjWK3MTZnj17lv348aMDG32HhYXNpPPKKWib +Hy+xJ07d8xnzJhxRl9f/0NQUJBPfX29NNt5iaOoqKgJ2dnZulTjBAcHe9F1gp5prD6I4OBgL7on SDapqamRq62tlaUaR11dvZjshFBRsXLlyp0o4lRWVnZE8ZwKY8mSJftRfHiZ5OzsfElaWrqebPuU lJQRqCbqN5eXl6eNYhgNhtE33Ipq0UV1qFt75OfnFxASEjKbahxNTc2C27dvW6qrqxejyEvcffny Refs2bNuTPfb2NgoGRAQ4Md0v6Btyc3N7b506dLAP/744y1Tv9fakqCgIB8UcT58+KAfFxdngyIW 21grPD58+KDP1KoDxsbGyQkJCWao/hCuW7duq7he9ejXr98bR0fHSBSx+vfv//r+/fuje/TokYMi 3q9UVlZ2nDt37gkcxzl094WKiopKmZWV1S2y7XEc51Cd59CSq1evTkL1PMbHx1t8//5dHkWsJvX1 9dJUV+CBYVbEbNu2be3u3buXU43TsWPHyhs3btgz8Z0gTvz9/Vcxfbby0qVLzh8+fNBnsk/Qdn38 +LHn+PHjox0cHK5TWS6/PXn9+nX/e/fujUEVb9++fd6oYrGJlcIDx3HOokWLDjFxttzMzCwhLi7O BuWu4927d891d3c/jSoekzZt2rRJQkKCjyper169MpOTk40HDBjwClXM1iQmJo49ceLEXLr7QUkU h1uhGGbVpLa2VpbsEoGtiY2NtaWyoICenl5WW9tzh05hYWEz169f/y/VOB06dPhx6dIl58GDBz9H kVdb8v79+z4oP3fC2Llz50om+wPtQ3R09HgDA4P0hIQEM7ZzEXWBgYFLUZ4svXXrltXbt2//QBWP LawUHidOnJh7584dc7r7sbKyuhUbG2uLci+PJv7+/qtEfR1sQfb29jdQrmbVRFNTsyA+Pt6ib9++ 71DHFuTn5xdQUFCgSXc/qDg6OkZSGeeenp5u8N9///2JKp+Kigql+/fvj0YVD8PQD7eiWmy5ubmd ba+rKBEVFRU1AcWVRA6Hgx8/fnyepaXlbVS5tTXbt29fw1RfsbGxts+ePRvCVH+gfSkpKelkZWV1 C+W+N21NSUlJp3PnzrmijInjOCc4ONgLZUw2MF54FBcXq/v5+QXQ3c/o0aPvX716dRKVMfa/oqam 9u3o0aML6IhNB2Vl5fLDhw8vpCu+urp6cXx8vEXPnj0/0tUHhv3c3X7p0qWBdPaBkpycXI2Dg8N1 KjEiIiJcUOUTExNjh3qia3R09PjGxkZJFLFqamrkqE5Ynzp16gUUubR1iYmJY6dOnXqhoaFBimqs PXv2LBPXq8BMefLkyVCmzhLv2LFjNRP9gParoaFBavXq1Ts2b968ke1cRNHRo0cX0DGqJzQ0dFZp aakq6rhMYrzw+Pvvv/+he1+GIUOGPIuOjh6PclfulkyYMCFKXP7YHjhwYLGOjs4XOvvQ1tbOi4+P t6D7SlBERIQLynGTdBOl4VZ0DPcoLi5WT01NHY4iVmRkpCOVOSODBw9+/ueff/6HIpe27OXLlwMn TZp0FcWu5KtXr94hTicD2MREQZCamjoc9VVNAFqzadOmTWR3GG+rGhoapA4dOrSIjtg1NTVyKBYB YROjhceLFy8G0T1GX0tLKz8yMtKRjuFVLTl69OgCExOTB0z0Rdbff//9j6ur6zkm+tLV1c2+ceOG vby8/Hc6+1m6dGkgqrPsdLOxsYlTU1P7Rrb9+/fv+6BYhYrH43Fv3rxpTTVOS65fv+6AIg7VIgsm lf9eVlaWnrW19U0UJ4Dc3NzOwo8O4d26dcsqLS3NkM4+/v333/V0xgdA0Lp167YeOXLkL7bzEBWX L1+e/OXLFx264gcHB3uJy++fljBaeCxbtmwPnU+WoqJiVWxsrC3dZ/abk5GRqYuMjHRkYn4DGdOn Tw9n+lKooaFh2unTp91RTmIXlJ6ebnDy5Mk5dMVHicvl8pycnK5QiYHiqkdCQoIZXVcbUVxJKS8v V6ZSGHE4HHzKlCkXqebRluXn52tZWlreRrHxo7m5+Z2TJ0/Ogfk0xNA56fu///77MyYmxo6u+AC0 xsvLKzg5OdmY7TxEAaoldFuTm5vbna6l7JlAeWyvsOLi4mzu3r07jq74HA4HP3HixNyBAwe+JBsj OTnZWFdXN7tLly6FRNqpqqqW3rx509rGxiZOlFYcmDZt2vlTp055kPlh8PHjx55ycnI1ZIdNTZo0 6er69ev/3bJlywYy7YWxcePGzW5ubmfpHlKHwvTp08Op7GAcHh4+ffv27Wuo/Mijc1Wdt2/f/pGR kdG7d+/eGWRjXLlyxYnKJlUmJiYPYBnX1lVUVCjZ29vfQLHh59ChQ59cu3ZtorguK86my5cvT/7w 4YO+vr7+B9Sxt23btratbDL2K4sXLz7A9vf+iBEjUpjuU0NDo0iYycU1NTVy9fX10lVVVYp5eXna BQUFmu/fv+/z9u3bP1AMr2wJj8fjTp8+PfzZs2dDqFzhF3dpaWmGjx49Gkl3P/v27fOeNGnSVbr7 oQWO44wcw4cPT8EwDKfrWLVq1Q4q+d24ccNOVla2pnfv3u/z8vK0yMQoLS1VGTNmTCKdj1PYw9vb O6ixsVGCzOPIycnp3rNnz2xdXd2srKwsXbLPaWNjo4StrW0MnY9z165dy5l6D1M5GhsbJbS1tb9Q eazJyckjyfbP5/M5Xbt2/STKr4WlpeUtKv0fPHhwEdE+165du5Vsf1u3bl1L5fFmZmbqke1bRkam lkhfNTU1sqampvdRvM56enqZhYWFGnR8TmRlZWvI5lVTUyNLpe+wsDB3Oj8fzY8FCxYcQf3cZWdn 95SSkuIxkb+RkdETqvkOHjz4Gdn+i4qK1Ol4/zFxPHz40Jjs49bV1c2i0ndDQ4NkWlrakJ07d/qN GTMmkcPh8FG/Nzw8PEJQPE+nT5+eQTaHGTNmnGbr9Z0xY8Zppr5H0tPTB7H9fiZzMNJJdHS0PZ1P vomJSVJDQ4Mk2fzCw8OncbncH03x+vTp845s8VFXVyc9d+7c40y98QQPOTm570ePHp1P9rloKjqa 4nXr1i33/fv3vcnGKykpUaP6g/tXR+fOnYurqqoU2P4gCXP4+vruofJYvb29g8j2/fTpU0O633uj R4++Rza/4uLizlR+NElJSfHI/BhpD4XHjx8/uPb29tGoPm8ZGRn6dH1G2kvhIS0tXUf2b0xrx6JF iw4ylT8UHuQPNgsPwSMnJ6f76tWrtysqKlaiem9wOBz+gwcPRlHNTRwLj6KiInVpaek6pj6Hc+fO Pc72+5nMwUgnRkZGT+h64jt27FiRnZ3dk2xuhw4dWighIdEoGLdPnz7v8vPzNcnGjYuLs9bR0fnM 1BsQwzB85MiRyVSKBMGio+nQ0NAopFJZ375924KOMytNx7Zt29aw/UES5nj8+PFQKo+zS5cuBWQL 7L///nsL3e8/SUnJhq9fv3Yik9/+/fsXU+nb1tY2hky/bb3w4PP5nNmzZ59E8foqKipWPnv2bDCd n5H2UnhgGIavXLnSH9XzVlhYqEHluSN6QOFB/hClwqPpKCkpUVu4cOEhVH+nDQwMnpMdcdF0iGPh sWHDhs1MfodIS0vXieNngfYOEhISxtL5xIeEhHiQze3gwYOLfhX7zz//fENlSEFpaamKt7d3EN1/ ELS1tb8cOHDAk8oHPSsrS7dbt265rfWhoqJS+urVq/5k41M92/+rQ0NDo7C2tlaG7Q+TMIe+vn4G lcd6586dcWT6HThw4AsmvghDQ0NnksnPxMQkiUq/YWFh7mT6beuFx7Jly3ajeF07dOhQf/PmTSu6 Px/tqfBQVFSsLCsrU0bxvK1evXo7k7lD4UH+EMXCo+mIj483V1NTK0HxHomMjJxAJRdxKzzq6uqk u3TpUsDk5xDDqP8dYuOgvYPx48dfp+sJt7GxiSWbV0xMjK0wQzuoXvnAcRwrKCjosmzZst3y8vLV KB9/t27dcg8cOOBZV1cnTSW/nJyc7j169Pj4u/60tbW/fP78WYdMHzU1NbJ6enqZdL0XqAwvY/Kg euVh/vz5R8m8vkx9CU6ePPkS0fw+ffrUtaWrjsIeMjIyteXl5UpkXo+2XHhs3bp1LYrXlMPh8MkW dkSP9lR4oHgP4TiOVVRUdFRWVi5jMm8oPMgfolx44DiOZWRk6Ovq6mZRfY+YmJgkUclD3AqPU6dO zWL6+wPDMFxLSyvvx48fXLbf10QO2t/AVH5Q/OqQk5P7Tnbi86tXr/orKSmVC9sXiuIDx3/++I6K inJwd3cPI1uEqKqqfnN3dw+Liopy4PF4UlRzErboaDqGDBmSVl1dLU+mr7t375rRNeSqd+/e76le 2mXiePv2bV8qj1NFRaW0vr6+A5E+AwMDfZj6ElRQUKgievUpICBgBZU+p0yZEkH29WirhcepU6dm ofqs7dmzx5epz0d7KzzU1dWLqOa9bdu2NUznDYUH+UPUCw8c/7lQgZaWVh7V90lqauowsjmIW+Ex dOjQx0x/DpuO8PDwaWy/r4kctAZfsmRJMF1PtL+//0oyOeXl5WmRWd2nb9++b1EUH01HdXW1/MOH D42Dg4OXeHh4hIwbN+7O4MGDn/Xo0eOjmppaSa9evT4MHTr0sbW1dZy3t3dQaGjozFevXvWnMole 8CBadDQd9vb20WTzcHV1PUvXeyI6Otqe7Q+UMIeBgcFzJh+nubl5PJl+5OTkvpNpFxMTY0skP6pz wC5fvuxE9rVoi4VHZGTkBFSrG1FdLZDo0d4KDwzD8P379y8mm3Ntba2MpqZmPtM5Q+FB/hCHwgPH cezJkydGHTp0qKfyPlm6dOlesv2LU+Hx4MGDUVSep7FjxyZQaT9y5Mhktt/XRA7aAtfU1MiqqKiU 0vGlp6urm0VmeFFtba0MlR99/fv3fyXOX3jNj8zMTD0qy6v6+fntJNPvly9ftFEPOWs6HBwcoth+ XoU5duzYsYrK4yTypVpWVqbcfMU2YQ81NbUSPz+/nWTyW7hw4SEi70Mqz0XHjh0rqPzgbGuFR0JC wlgZGZlaFJ8nV1fXs3w+n8PkZ6M9Fh49e/bMJnv1muqiDGQPKDzIH+JSeOA49eGaOjo6n8l+h4hT 4eHs7HyRbK5cLvfH58+fdajOw6RydYnpg7aNhiIiIlzKyspU6IgdEBDgJy0tXU+03bJly/akp6cb kO339evX/ceMGXMPxa6/bMrNze1uYWER//nz565kY+zatWtFXFycDdF22traecuWLdtDtt9fiYmJ sfv06VM3OmKj5Orqeo7qRoC1tbWywtw3Ojp6PI/H4xLtw9HRMZLsLuBRUVETcBznCHPfc+fOuZLp o8nkyZMvy8rK1lKJ0Va8fPly4KRJk66i2CDM3Nz8TkhIyGzYlZx+Hz9+7HnhwoWpRNs1NjZK7t27 15eOnADAMAxbvnz5bl1d3Wyy7b98+aKTmpo6HGVOoiYvL0+byua8Li4uETo6Ol8WL158gEoewmws KSpoKzyOHz8+j464I0aMSHFycrpCtN3Vq1cnHTp0aBHV/t+9e9fXysrq1tevXztTjcWG3Nzc7mPH jk3MycnpQSUOjuOcefPmHS8tLVUl2nblypU7O3fu/JVK/y1pbGyUPHny5BzUcVHr2rXrZ2Nj42Sy 7auqqhRv3LhhL8x9yX4hOjo6RhoZGT3t2rXrZ6Jt8/PztdLS0gyFuS+ZH1zNTZ8+PZxK+7YiMzOz l5WV1a3y8nJlqrGMjIyewq7kzPL3918lbLHeJDw8fHpWVpYeXTkBIC0tXf/333//QyVGYmLiWETp iKTg4GAvMif3mnh5eQVjGIa5u7ufprLj+4ULF6bm5eVpk23PJFoKj4yMjN4PHjwwoSP2pk2bNhFt 8+3bN7VFixYdQpXDq1evBowePfq+uF35QFV0NMnLy9P29vbeR7SdgoJC9YoVK3ahyEFQSEjIbKJ/ wNlA9QezMD/Y6+vrpW/evGlNNLacnFyNhYVFPIfDwSdMmBBFJr/r1687/O4+L1++HPjmzZt+ZOJj GIapq6sXm5mZJZBt31bk5+drWVpa3i4qKtKgGktPTy8rOjp6vIKCQjWK3IBwXr16NSAmJsZO2Pvj OM7x9/dfRWdOAGDYz79V6urqxWTbP3r0aCTKfERJbW2tLJWT7EZGRk+HDx+eimEYJisrWzt37twT ZGPxeDzu0aNHF5BtzyRaCo+IiAgXOuIaGxsnW1tb3yTazsfHJwjFH+Xm3r1713fcuHF3xaX4QF10 NDl79qwbmbPWixcvPkDly6w1nz596pacnGyMOi5qLi4uEVJSUg1k20dHR4+vqKhQ+tV97t69O66q qkqRaGxbW9tYOTm5GgzDsIkTJ14jk58wV1qoXu2YOnXqBSrPYVtQUVGhZG9vfwPF57pz585fY2Nj bTU0NIoQpNauDBo06AXVYWk7duxYLex9r1+/7vD69ev+VPpzc3M7S6U9aB+kpaXryQ67xTAMS0lJ GYEyH1Fy+vRp92/fvqmRbe/r67u3+X8vXrz4AJW/aYcOHVqEYqgt3WgpPKj+oGjN6tWrdxBtk5CQ YHb27Fk3OvJ5+/btH9bW1jdLSko60REflaysLD1TU9Mk1EVHEy8vr2CiQzzk5eW/L1myZD8d+dD1 /kOpc+fOX83Nze+QbV9XVycTFRU14Vf3oTLMqun/jxkz5p6qqmop0RgvXrwY9PHjx56/ug/VExTt fZhVbW2t7Pjx46OpzFtroqioWBUXF2ejr6//AUVu7c2QIUOe2draxlKJ8eDBA5OHDx+OEua+VK92 dOnSpZDqmHLQfowfPz6abNvi4mJ1cTlBS9SBAwcWk22rqalZ4OzsfKn5bd26dfvU/O8vUV+/fu1M 14l/lKRQB3z37l1fqmdiWqKvr//B3t7+BpE2jY2NkoIVJWovX74caG7EYMoKAAAgAElEQVRufufO nTvmnTp1KqGzLzJQTCT/na9fv3bevHnzRqITHRcuXHh4+/bta4SdKC2sixcvTtm7d6+vpKRkI8q4 qE2fPj2czFCoJhcuXJjq7u5+uqV/w3GcI+w8kOakpKQa7OzsYpr+m8vl8uzt7W+cPn3anWis6Ojo 8U3jVwWlpqYOz8zM7EU0ZpPu3bvnjhgxIoVse3HH5/MlnJ2dL6EY0tqhQ4cfV69enTRkyJBnKHJr rzZs2LCFyHCplvj7+6/63QmFxMTEsVSv6q5cuXKnOC/KsH79+n/ZyH/btm1r5eXlvzPdL9tGjx59 X1JSsrGxsVGSTPuPHz/27NKlSyHqvNh0584d85cvXw4k237RokWHWppH5+XlFXz58uXJZOMGBgYu nTlzZhjZ9oxAvUzWP//8sx6jYfm+ffv2eRHN5ejRo/PpyKWlY9CgQeklJSVqbC9T1vygumQukYPL 5f549+5dH6I5zp8//ygd+dy7d28028//747KykpFKsuHcrncH62951JTU4eRiWlubh4vGOvy5ctO ZGJZWFjcbu2x+/r67qHy+q5Zs2YbitdAXJfTRXVwOBx+aGjoTLY/C02HuC6nO3v27JM4jmNWVlY3 qb4eL1++HPCrPK2treOo9NGpU6evVVVVCs+fPzcgG4Pt5XTZOoqLiztTfdzitJxu82PAgAEvyeZ9 7ty56UT7E/XldB0cHKLI5ictLV1XWFio0VpsQ0PDp1Tep0lJSSZsvU+EOZAPtYqNjbVFHVNWVrZ2 xowZZ4i0+fHjR4dt27atRZ1La168eDHI3Nz8jqgMu8rJyelB95WO5ng8Hnfz5s0bibZbsGDBUTry IbPUL9MUFRWrml9dIIrH43FbOzOCYphVExsbm7imOR9E3Lt3b0xLQ/D4fL4EDLMSDbt27Voh8mfH xAiZxU+aw3Gcs3PnzpWt/fuLFy8G3bp1y4pKH6tWrfKHxQMAUf369XtDtm1ubm53lLmwLScnpweV q5vTpk07/6u5dJ6engfJxsYwDNu3b583lfZ0Q1p4lJWVqTx+/HgYypgYhmHOzs6XVFRUyoi0OXHi xFy65jS05sWLF4MsLS1vU5lshEJOTk4PMzOzBKYf/4ULF6YSvfRoZGT0dNCgQS9Q50JHAUwHula3 IlN4cDgcvKXCQ05OrsbS0vI20Xg8Ho/bUgF4//790VSW/fvjjz/eDhgw4BXZ9uB/1NfXS7OdQ1sy cuTIR1RXWvvVMrlbt25dh1NYtU9NTe3bwoULD5PPDrRXZJZWb1JZWdkRZS5sCwoK8iE77AzDMOx3 81vd3NzOUll858qVK05M//4jAmnhcevWLauGhgbk80bmzJlzksj9GxsbJXft2rUCdR7CSE9PNzA3 N7/DVvHBVtGBYT/PZAcEBPgRbefh4XEKdS4vXrwYVFBQoIk6Lmr29vY3lJSUKsi2T0xMHCv4Iz4r K0uPzDK1Q4YMedatW7dPLf0b2dWtWhqvTnXyP9Grn6B1GzZs2NKWV51hA9V9DxobGyUDAwOXCt6e lZWld+XKFScqsVesWLELrnYAMjQ1NQvItv3+/bs8ylzYVFVVpRgSEjKbbHsTE5MHRkZGT391H2lp 6fp58+YdJ9tHY2Oj5JEjR/4i255uSAuP27dvW6KMh2E/3+yjR4++T6TNlStXnLKzs3VR5yKsFy9e DLKwsIhnuvhgs+hocuHChalfvnzRIdLGxcUlQkJCgo8yDxzHOXS8H1GTkZGpI/ujHsN+FnuXLl1y bn4bymFWTRwcHK6TWeYvJibG7sePHx2a/ruhoUGK6o8nFxeXCCrtwf9oaGiQmjFjxhkyyy6DlpmZ mSWYmpomUYlx/PjxeYIrAe3YsWM1lbOsampq32AlK0AWmeG2TVAvIMOmU6dOefxuKftfEXbvs8WL Fx/gcrk8sv0cOXLkL1Et+JAWHklJSaYo42EYhk2ePPky0R+lojC+LT093cDKyuoWmZ29yaB7yVxh 8Xg87uHDhxcSaaOlpZU/cuTIR6hzEXZpSrahHm5FtvCYNGnS1db+TU1N7RuZH1MVFRVKzb8Xbt++ bVlcXKxOJj8Mw7ARI0ak9OrVK5Nse/B/ZWVl6fn4+ASxnUdbsn79+n+ptK+rq5NpvlRnYWFhlzNn zsygEtPX13evoqJiFZUYoP2iUniIw94SwsBxnENlCV1tbe08YU80amlp5Ts5OV0h21dZWZnKuXPn XMm2pxOywqOkpKTThw8f9FHFa0L0ic/IyOgtKj84nz17NoSJYVdNE8mJXmmgS0hIyGyiZ+YmT558 GXUeovI++B1zc/M7VDZtS0lJGdFUcH779k2NzFKbenp6Wf3793/9q/uQvTLTfBdzqsOsYFI5PUJC QmaHh4dPZzuPtsLKyurWqFGjHlKJERwc7NV0ZjUgIMCPyo83ZWXlcrjaAaigMoxenJdubi42Ntb2 /fv3fci2X7JkyX4iVzFaW45eWEFBQT5U5oTRBVnhkZycbIz6ASoqKlaZmJg8INLm1KlTHqL0RKen pxvQOexKFIZXCcrPz9ciuj8F1c23WvLff//9ydQVJyqkpKQaBDcSIgLHcU7TD/ro6OjxZP5A/Opq RxMnJ6crZHZnvnbt2kQM+3nWq+n/kyEhIcGn8jyBX/P09DzY1lafYdPatWu3UWlfUVGhdOzYsfml paWqx44dm08llq+v715lZeVyKjFA+0ZluBSVqyWiJCgoyIdsW1lZ2dr58+cfI9Jm1KhRD4cOHfqE bJ9v3rzpl5CQYEa2PV2QFR50TFAcN27cXSLVIY7jHFE8a5eenm5gbW19s6ysTAVl3MzMzF6iMLyq JUSHBfTt2/ddaxObycJxnJOamjocZUy6UD2Tf/78+WkYRs/8jiY6OjpfyGwyl5ub2/3ly5cDY2Ji 7KiMjR03btxdLS2tfLLtwa+Vl5crz5gx4wyVeQTgf9jZ2cVQ+dGAYRi2e/fu5bt27VpBZQ6OkpJS BdUzpwBQ+e5uC1c8MjIyelOZN+rm5nZWTU3tG9F2v1sB63eoFEt0QVZ4vHjxYhCqWE2ILuH57Nmz IaL4IxzDMCwtLc3Q3Nz8Dqoz8Dk5OT0sLS1vi8rwKkHR0dHjiQ4NILNk6+9Q2VmUScbGxsk9evTI Ids+PT3d4Pnz54Pj4+MtiLZVV1cvFnaODZXVrWCYleh78OCByY4dO1aznUdbQXWuR2FhYRd/f/9V VGL4+PgEEV2OHgBBVH5rtIX3X2Bg4FIqo2nIFv/Tpk07T2XX9+jo6PGtLc/NFpEuPIgOsyJ7tpcp z58/H2xtbX2zpU3ViBDlKx1NqqqqFIle4iP6egvj9evX/VHHpAOHw8GnTp16gUqMRYsWHSJzZtTB weG6pKRkozD3JVt4REREuERHR48n0xbDfi4vKMxwMEDdpk2bNj169Ggk23m0BQ4ODtcNDQ3TqMTg 8/mk/0537NixEhYOAChQ+b2BejQD08rLy5VPnz7tTra9mZlZwsCBA1+SaduhQ4cfVDZa5vP5ElQm xNMByZ4bpaWlqlQ2BGuJoqJi1e8muwoiOq+ADU+fPjWysrK69fDhw1FklkorKCjQNDMzSxDVKx3N xcXF2RCZu2FsbJyMOodXr14NQB2TLtOnTw+ncnaT7LAyIsVE//79X/fu3TsjIyOjN5E+qL4Otra2 sW3hrJk4aFpi9/nz54M7duxYyXY+4ozD4eBr1qzZztbcJC8vr2BVVdVSNvoGbcvz588Hk21L5Wq+ KDhx4sTc6upqBbLtjYyMnpIZjdCE6kqOJ0+enLN58+aNorKqHZLCg46zykZGRk+FPQuLYT/HH6al pRmizoMOT548GVpdXa1A5ofUhw8f9MWh6MAwDLt79+44IvfX19f/0KlTp5KSkpJOqHJ49+5d38bG Rkki7yW2DBo06EW/fv3ekNn8jywFBYVqCwuLeCJtHB0dI8lsFEkFDLMSnoyMTB3V5Suzs7N1vby8 gkNDQ2ehyqu9cnJyujJgwIBXTJ8EkZeX/95Wr3bExMTYsXEior2e/Pj06VM3Khvydu/ePRdlPkxq bGyUpHrFICAgwI/pv5nNVVRUKIWGhs6iOl8EFSSFBx3jxwwMDNKJ3P/BgwcmMClStLx586ZfUVGR hrBLxXI4HHzAgAGvUK7CUF9fL52fn6/VtWvXz6hi0mnatGnnqe58TISNjU2cjIxMHZE2EydOvMbk l6i8vPx3e3v7G0z1J850dXWzb968aW1vb3+D6FUpQWFhYTOtra1vurq6nkOVX3vE4XDwtWvXbmO6 ePby8gru3LnzVyb7ZIqhoWGaurp6Mdt5tBcxMTF2ZNuqq6sXU5mjwLaoqKgJHz9+7Ml2HlTt27fP 29PT8yDqzZrJQDLHg44lGIkOsxKX1YvaExzHOU+ePBlKpA3R110YojwXRtD06dPDySxZSxaZORsj RoxI0dTULKAjn5ZMmjTpqry8/Hem+hNXnTp1KomNjbXt1atX5rlz51ylpaXrqcb09PQ8KE6fH1Hl 4uISQcd3W2vk5eW/+/r67mWqP9C2UZk/O2LEiBSUuTBNFFeFIuPDhw/6ojIdAUnhQccfJqJf0uIy zKq9Ifq6tPfCQ09PL8vIyOgpE31xuVyenZ1dDNF2EhIS/AkTJkTRkVNLYJjV78nJydVcv37doXfv 3hkY9vOMMNXVkDDs5yV6WGKXOgkJCf6qVav8merP09PzIFwRAChkZWXp3bp1y4pse3EuPF6/ft3/ /v37o9nOAxVRKaJEtvDQ1dXNJnJ/OlbVAtSlp6cbELm/np5eFuocxG1TNKZ+aI8dOzaR7Jhlsqtb EaWqqlpKdA5Ke8PlcnmXL1+eLPgH3tvbex+KlcAePnw4atu2bWupxmnvpk+fHt5UGNJJRkamDq52 AFR27969nMrKaqNHj76PMh8m7d2711eUNqSm6tatW1Zv3779g+08kBQeRUVFGijiNJGXl//eqVOn EmHvX1NTI5efn6+FMgeABtFx5nRMQisuLlZHHZNO06ZNO8/EZHhhNg1sjbm5+R0mdkJ2cXGJ6NCh ww+6+xFXHA4HP3LkyF82NjZxLf3byZMn5/Ts2fMj1X62bNmyITk52ZhqnPZMUlKycfXq1Tvo7sfT 0/Mgk0MhQdv19u3bP44fPz6PbHsNDY0iYfeIEjUlJSWdRHFDaipwHOfs379/Cdt5ICk8UG2K14To j8/MzMxebakqbUuysrL0iJwt6dq162fUk5++ffumhjIe3TQ1NQvoPkvE4XBwKsOluFwuj8hSyWTB MKtf27p167rZs2eHtPbvysrK5efPn59GtXhrWmK3srKyI5U47d2MGTPOoCgEWyMjI1O3fPny3XTF B+1HQ0OD1Lx5847zeDwu2RiTJk26KgqTmck4cuTIX7W1tbJs54HaqVOnPFD/ZieKcuGB4zgH9YMg ugKCOI3hb2+aVpUS9v7S0tL1qM+ki1vhgWH0/+A2MjJ6SnWlL7qHW2lpaeXTsalkW+Hp6XlwzZo1 2393v2HDhj3+999/11Pt7+PHjz0XL158gGqc9ozL5fLovOqxYMGCo1paWvl0xQftx8qVK3dSvco5 ZcqUi6jyYRKPx+MePnx4Idt50KGmpkYuJCRkNps5UC48KioqlBoaGpAsy9uE6IZHqId6AbSIvj5q amrfUPYvjoWHs7PzJRSrErWGyjCrJnZ2djFEl+IlwtXV9Zy4ni2jm46Ozpd9+/Z5C3v/FStW7CKz kICgM2fOzDh37pwr1Tjt2ezZs0Po2FBNWlq6fuXKlTtRxwXtz44dO1bv3bvXl0qM/v37vzYzM0tA lROTLl265Cwu+6WRERwc7MXmgiGUC4+qqipFFIk0R2R+B4Zh2NevXzujzgGgQ/T1QV14fP/+XR5l PCaoqKiUWVlZ3aIrPoqrFQoKCtXm5uZ3UOTTEhhm1ToZGZk6IvOAOBwOfvr0afdu3bp9oto3LLFL DZfL5fn5+QWgjjtv3rzj2traeajjgvajsbFRcvXq1TuEuZL6O76+vnuZXBoeJSIndcRRbm5u9+vX rzuw1T/lwuPHjx8dUCTSnIKCQjWR+5eXlyujzgGgQ3QoHtHX/3fq6+ulUcZjCl0/vHv16pXZr1+/ Nyhi0TXcqk+fPu+HDBnyjI7Y7ZWqqmrpmTNnZkhJSTVQiQNL7FI3d+7cEyiLBLqKGdB+ZGdn61pY WMSjWIZbW1s7T1w3Hk1LSzNMSUkZwXYedGOzuKJceNDxo47oRMi6ujoZ1DkAdIi+PqiHGNFRHDPB 0dExEnURhmE/J/yhijVhwoQoOlbggqsd9DA1NU3asGHDFqpxYIldaqSlpetRFgpz5849QceKgKDt Ky0tVV23bt3WgQMHvkxMTByLIuaOHTtW0zkMl05Uh5iJi4SEBDO2tqGgPDeDjh91XC6XR+T+4npG u72AwoMcOTm5GgcHh+uol/RDeZVCXV292NjYODkpKckUVUwM+7mkMMp44H+sW7dua1JSkunt27ct qcTZsmXLBgsLi3hxXS6TbX/99deRnTt3rqS6FDyXy+XB3A5ABJ/Pl0hJSRkREhIy+8KFC1NRDpkf OXLkIzc3t7Oo4jGpoKBA8+LFi1PItu/cufNXFMNZhVVdXa3w/v37PmTbBwcHe1FZLpksyoUHlY1l WkN0QikspSvaiA7JQD2hWJyHhEyfPj0cZeGhoaFRhHon2YkTJ15DWXgYGhqm9enT5z2qeOB/k5CQ 4J85c2aGgYFBekFBgSbZOE1L7D5//nxwx44dK1Hm2B7IyMjULVu2bM+KFSt2UYnj4eFxis4leoF4 +/79u/znz5+75uTk9Hjx4sWgtLQ0w7t3746jY9EVGRmZukOHDi0S17kdhw4dWkTlROXBgwc9nZ2d L6HM6VdqamrkdHR0vpSVlamQaX/mzJkZ27ZtW6uurl6MOrdfoVx4EL06IQyiq2TJy8t/R50DQIfo 64P6CgWdq0PRzcbGJk5NTe0bqj8Sjo6OkagLOycnpyso9w6AYVb0U1dXLz537pyrhYVFPJXCPDs7 W9fb23vfqVOnPBCm124sXLjw8M6dO1eS3eSU7uV5RdXAgQNfisKKd7Nnzw7ZunXrOqb6+/z5c1c9 Pb2s392vpqZGrr6+Xrrpf5nIDcMwbNeuXSsGDRr0gqn+UKqvr5c+evToArLttbW181CsFkmEnJxc jYeHxymyw8Pq6+uljx8/Pm/t2rXbUOf2K5QLDzp2FSb6w5OOcfAAHaKvD+ovSnEuPLhcLs/JyenK sWPH5qOIR8cXY48ePXIGDRr0AsV4UQkJCf7UqVMvoMgL/NrYsWMT16xZs53qHh+hoaGzrK2tb0LB SJy8vPx3X1/fvWRXEZoxY8YZXV3dbNR5iTpRWUKf6YVteDweNzs7W5fJPoXl5OR0RZz3+QkPD59O 5X21ePHiA3SciP8db2/vffv27fMmewLpwIEDi/38/AKYzJ3yMCk6ftTV1NTIEbk/XPEQbUQLD9S7 hdJRHDMJ1Q86BQWF6nHjxt1FEUsQqnkjpqamSTo6Ol9QxAK/t3nz5o0o3hOLFi06lJub2x1FTu2N l5dXMNEl5DEMwyQlJRvb49UOIHqGDx+eGhoaOovtPKg4cODAYrJtpaWl6+fOnXsCZT7C6tGjR46t rW0s2fb5+flaV65ccUKZ0++IZOFBdPlVKDxEG9HCg+jr/zuysrK1KOMxbcyYMfdQLL1J54Z/qAoP OGvOLAkJCf7Zs2fdNDQ0iqjEgSV2yZOXl//u7e29j2g7Nze3s717986gIycAhNW/f//XMTExduI8 8iQpKcn06dOnRmTbu7m5nWV6nkRzXl5ewVTaM720LuXCg+gu48IgOp6d6h9NQC+iZ/NKSko6oewf 9YaETJOQkOC7uLhEUI1D5/hTAwODdKpDPrhcLm/y5MmXUeUEhNOlS5fCkJCQ2VTHzD948MBkx44d q1Hl1Z74+PgEqaiolAl7f0lJyUamx2UDIMjQ0DDt9u3blnT8DmRSUFCQD5X2np6eB1HlQoalpeXt P/744y3Z9snJycaPHz8ehjKnX0FyxQN1pUt0p2thJlsBdkhISPCJrLiC4zgH9RUPcf9SxDDqVwK4 XC6PyuVYYVAtbKysrG6RGXICqLO1tY2luroShmHYpk2bNrWHzbdQ69ixYyWRqx7Tpk07Dyu/ATbZ 2NjEJSQkmHXp0qWQ7Vyo+PTpU7fIyEhHsu1NTU2TDA0N01DmRBSHw8Gpzq8JDg72QpXP7yBZChf1 D7vPnz93JXL/Xr16ZaLsH6Cjo6PzhchQp4KCAk3Uq1q1hR+zQ4cOfUJlWIWZmVkCkTOqZFAdbgXD rNi1devWdaNGjXpIJUZDQ4OUm5vbWZT7ArQXvr6+e5WVlct/dz8JCQk+zO0AbOFyubyNGzdujo6O Hq+oqFjFdj5UHThwYDHRlVSbozrMCZVZs2aFKikpVZBtf+HChal5eXnaKHNqDZLCA/UPu69fv3Ym MsFcSUmpoi38uGyLiF6NomOCqrgPtWpCZbUnlJsGtsbExOQB2bNfcnJyNUwvRQj+NykpqYbw8PDp VD8v2dnZuj4+PkGo8movlJSUKtatW7fV0NAw7VeHl5dXcP/+/V+znS9ofwYMGPDq0aNHIzdt2rRJ UlKyke18qKqpqZE7ceLEXLLttbS08pn42yoMBQWF6tmzZ4eQbc/j8bioVs/8HSSFR9euXT+jiNME x3FOTk5ODyJt4KqHaCL6unz8+LEn6hxQvz/Z4urqeo5MOw6Hgzs4OFxHnY8gCQkJvr29/Q0ybR0c HK6L8+TEtqJr166fQ0NDZ1HdACwkJGT2+fPnp6HKq71YsWLFrqdPnxr96ggMDFzKdp6gfenatevn AwcOLE5LSzNke1gRSqdPn3anskcWW0votmbJkiX7qczVO3To0KK6ujoZlDm1BEnh0b1791wUcZr7 77///iRyfyMjo6eocwDUEf2SIvq6C6Ot7Orbt2/fdwYGBulE2w0bNuwxU0vUkj37A8OsRIe9vf0N MqssCYIldgEQb7q6utn79+9f8uHDB31PT8+DovQjGwVxXUK3NXp6ellU5nIWFxerR0REuKDMqSUi W3i8evVqAJH7Ux2bDOhhYmLygMj9X79+3R91Dm2l8MAwcj/QmRzCZGlpeZvouF9lZeVyGxubOLpy AsQFBAT4jRgxIoVKjPLycmV3d/fTsMQuAOJDVla2dsqUKRdv375tmZmZ2Wvx4sUHxHkT3tbEx8db EP2d2Zyrq+s5UVxRleqcE6orfAkDSeHRo0ePHBRxmnv58uVAIvc3NTVNQp0DoEZFRaWM6BJvqAsP CQkJflsZaoVhPwsPosNgmByDKi0tXU+0iJg8efLltviHTZxxuVze2bNn3ahMVsSwn+vjBwQE+KHK CwCAloSEBN/Q0DBt1apV/lFRUROKioo0IiIiXCwsLOKpDrkUZeK+hG5rrKysbvXt2/cd2fbPnj0b 8vDhw1EocxKEpPCg8iBbQ3RNYW1t7Tw6rrwA8kxMTB4QGW9YUlLSKTs7WxdlDnp6ellt6Udt165d PxO5uqevr/+ByvreZBAtdGCYlWjS1dXNPn78+Dyqcf7+++9/UlNTh6PICQBAjpqa2rd+/fq9sbS0 vO3t7b3v6NGjC1JSUkZUVFQoPX361GjHjh2rHRwcrreFlap+JysrSy8mJsaObHsTE5MHojq8H8XS unRvKEh6CbHmevfunSEjI1OHclJKfn6+Vm5ubncixcTYsWMTQ0NDZ6HKAVAzZsyYe0Tun5ycbIzj OAdlDgMHDnyJMp4oOHny5Bxhx86zscb6xIkTr92+fdtS2PuPHTs2kcZ0fsnDw+MU0eGATajuo6Cl pZVP5HlqTk5OroZK38Jydna+9ODBA5Pa2lpZKnGEXTjg2rVrE8kOzaJ6gsHCwiKe7OuhpaWVT6Vv Nujp6WWRfbwdO3aspNr//v37l1RUVChRjcMmMic7+/Xr94bs8y4seXn57x06dPghKytbq6ioWKWu rl4sbifgxo0bd5dscaCtrZ33q3+XkZGpu3nzpjW5zH6elCHblglz5sw5SeWCgJSUVAPKfP4PHMeR HAYGBs8xDMNRHuHh4dOI5BAVFeWAOge6jtLSUhUyz/O9e/dGs527sEdWVpYukce2evXq7ahz2Lhx 4yZU73E44IADDjjggAMOOMgfSIZaYdjP9Z1RxWpy9+7dcUTub2VldYvqmGSAxtChQ58QPStw584d c9R5tMUrHgAAAAAA4ghZ4UHH2s6xsbG2RO4vLS1dP2HChCjUeQDinJ2dLxG5/7dv39TS0tIMUecx dOjQJ6hjAgAAAAAA4pAVHnQsZ/vlyxedN2/e9CPSZsqUKRdR5wGI4XA4ONHCIz4+3oLP5yN7P2LY z4nYbWlFKwAAAAAAcYbsh56BgUE6HTsPX716dRKR+9va2sbCj012WVhYxBMdZnXlyhUn1HmQnTQM AAAAAADQQ1Z4SElJNdAxrOXixYtTiOYhqusrtxc+Pj5BRO5fU1MjR2Vpu9bAppIAAAAAAKID6dAW OpbFfPny5cD379/3IdLmr7/+OiIvL/8ddS7g9/T19T/Y2trGEmkTGxtrW11drYA6FzaXaQUAAAAA AP8b0sKD6I7FwgoLC5tJ5P4qKiplbm5uZ+nIBfyaj49PEJFNAzGM+OsrDB0dnS/9+vV7gzouAAAA AAAgB2nhYWRk9FRdXb0YZUwM+7lhGo/H4xJp4+fnF9ChQ4cfqHMBrdPU1Czw8PA4RaRNUVGRBtHV y4RhZ2cXgzomAAAAAAAgD2nhISEhwbe0tLyNMiaGYVhhYWEXonMAevXqlblw4cLDqHMBrduyZcsG okPcQkNDZxEtKoVBdLgXAAAAAACgF9LCA8MwjK59NIKCgnyItvn777//gQ0FmdG3b993RK92NDQ0 SB08eNATdS6ysrK1FhYW8ajjAgAAAAAA8pAXHuPHj4+mY1ndhEy2wYYAACAASURBVIQEs+fPnw8m 0qZTp04lfn5+AahzAf/Xzp07V0pJSTUQaXPp0iXn3Nzc7qhzoes9CAAAAAAAyENeeMjJydU4ODhc Rx0XwzBs9+7dy4m2WbZs2Z4+ffq8pyMf8JOdnV0Mmdd8z549y+jIBzaRBAAAAAAQPcgLDwzDsKlT p16gI+758+envXv3ri+RNrKysrWnTp3ykJSUbKQjp/ZOSUmp4vDhwwuJtouJibF78uTJUNT5yMvL f4eJ5QAAAAAAooeWwsPGxiauc+fOX1HHbWxslNyyZcsGou1GjBiRQnRTOyCcoKAgHzI7xW/evHkj Hfk4OTldgT1cAAAAAABEDy2Fh7S0dD3RicbCunDhwtSXL18OJNru33//Xd+7d+8MOnJqr+zs7GJm zZoVSrRdZGSk4+PHj4fRkdP8+fOP0REXAAAAAABQQ0vhgWE/dw/ncDg46rh8Pl9i6dKlgUTbycrK 1l68eHEKnA1Ho1u3bp9CQkJmE23H4/G4K1eu3ElHTn369HlvYmLygI7YAAAAAACAGtoKDz09vSwz M7MEOmInJCSYRUVFTSDabuDAgS/DwsJm0lEQtScyMjJ1ly5dciazWeT+/fuXZGRk9KYjr/nz5x+D 1xYAAAAAQDTRVnhgGIZ5eXkF0xXb19d3b01NjRzRdk5OTldWrFixi46c2osDBw4sHjp06BOi7fLz 87XomtshJydXQ9fwPgAAAAAAQB2thYejo2PkH3/88ZaO2NnZ2bobN27cTKbt9u3b19jb299AnVN7 sHz58t1z5sw5Saatt7f3voqKCiXUOWEYhnl4eJxSU1P7RkdsAAAAAABAHa2FB4fDwelcTSowMHDp 06dPjYi2k5SUbLx48eIUuoaCtVUeHh6nAgIC/Mi0jYqKmnD58uXJqHPCMAyTkJDgw6plAAAAAACi jdbCA8MwbObMmWFk5gIIo6GhQcrd3f00mSFXsrKytdHR0eNNTU2T6MitrZkyZcrF48ePzyMzh6K4 uFidztWmHBwcrsOKZQAAAAAAoo32wkNWVrbWz88vgK74796960t2zoacnFxNVFTUhCFDhjxDnVdb 4uzsfOncuXOuZDdhnDdv3vHi4mJ11Hk1Wbt27Ta6YgMAAAAAADRoLzwwDMMWL158QFNTs4Cu+IcP H1545coVJzJtlZWVy+/duzcGdrtu2dy5c0+Eh4dPl5KSaiDTPigoyOf69esOqPNq4uDgcH3YsGGP 6YoPAAAAAADQ4OA4M6uPBgcHe3l7e++jK76CgkJ1amrq8D///PM/Mu0bGhqklixZsv/IkSN/oc6t JaWlpaoqKiplRNvdv39/9JgxY+7RkVNzHA4H37Bhw5ZNmzZtIhsjJSVlxJgxY+79+PGjA8LU/j8O h4OnpqYOJ7PCFhAP1dXVCo8ePRpZUFCg+fXr184lJSWdlJWVy9XV1YvV1dWLhw8fntqpU6cStvME AABAXk1NjVxKSsqIvLw87abvekVFxSoNDY2izp07fx02bNhjDQ2NIrbzBNQxVnjU19dL9+3b911O Tk4Puvr4888//0tJSRmhqKhYRaY9juOcLVu2bNi8efNGHMc5qPNrTpQLDxkZmboTJ07MdXV1PUc2 RmFhYRcjI6OneXl52ihza27y5MmXL1265ExXfFG0efPmjefOnXNFFe/9+/d9UMVCpaKiQunkyZNz rl+/7vDw4cNRvypcJSQk+IaGhml2dnYx8+fPP6atrZ3HZK5EODk5XUlMTBzb/LarV69OIvt57tmz 50fBVeJyc3O7k/3+Q6G6ulqhW7dunwRvDwsLmzl+/PhoKrG1tbXzamtrZZv+W0lJqeLjx489qcRE wdbWNjY1NXX47+7H4XBwZWXlchUVlTJlZeVyfX39DyNHjnw0cuTIR/r6+h+YyJVOnz9/7jpkyJBn jY2Nks1vd3d3Px0UFOTDVl4tCQoK8jl48KAnHbGPHz8+j425ozk5OT0GDRr0ovlturq62c+fPx/M dC7Cqq6uVggNDZ0VGRnpmJSUZFpXVyfT2n05HA5uYGCQbmtrGzt//vxjPXr0yGEwVUICAwOXbtmy ZUPz23r16pWZkJBgRmUT67Nnz7oJblOxfPny3evWrdtKNiYrcBxn7Lh48aIzhmE4nYe1tXUcj8eT opLn7du3Lbp06VJAZ56lpaUqZHK7d+/eaDrz6tOnz7vnz58bUHn+ampqZEeMGPGIzjw7dOhQn5GR oc/k+1cUjkWLFh1E+Tzy+XwO24+p6fjx4wfX399/ZceOHSvIvieWLl26t7y8XIntx9LSYWlpeUsw 59u3b1uQjaesrFwmGK+ioqIjm4+xsrJSsaXXRllZuSwzM1OPSmw5ObnvgjHZfk1xHMdGjRr1gOrn sHv37jkbNmzYXFRUpM724yF7rFy50r+lxyYnJ/e9pKREje38mh/r1q37l66/TbGxsTZsPKbMzEw9 wVz09PQy2X6uWzoaGhokg4KCvFVVVb+ReY6lpKR4f/3112FRe181Hdu2bVvTUt7Tpk0LpxL3xIkT cwRjrl+//h+2Hy/Rg5E5Hk2cnZ0v0X22/ubNm9YLFy48TCWGhYVF/IsXLwZZW1vfRJWXOHB3dz/9 9OlTIwMDg3SyMfh8voSbm9vZlJSUEShzE7Rs2bI9beEsIfippKSkk7W19c1Vq1b5V1ZWdiQT48eP Hx0CAwOXGhkZPX39+nV/1DkC8srLy5WdnJyukFmBsD3Izc3tvmXLlg26urrZW7duXcfj8bhs50RE TU2N3IkTJ+a29m/Hjh2bz3ROQDSVlpaq2tnZxfj4+ASVlpaqkonR0NAgdeTIkb8MDAzSHz9+PAx1 jnQ5f/78tH379nmznQfbGC08MAzD9u7d60t2dSRhnThxYi7ZzQWbqKurF8fExNht3759jaysbC2q 3ESRurp6cXh4+PSwsLCZCgoK1WTj4DjO8fT0PHj16tVJKPMT1KVLl8I1a9Zsp7MPwJy0tDTDwYMH P09ISDD73X2lpaXrf3efzMzMXsbGxsmRkZGOaDIEKLx8+XIgnctqtwXfv3+XX79+/b9jx45NLCws 7MJ2PsI6deqUx7dv39Ra+/fg4GAvcSumAHpv3rzpN2zYsMe3bt2y+t19hfmu//Lli87YsWMTUQ4/ ptuKFSt2JSUlmbKdB5ukmO5w8ODBzxcvXnyA7qpvy5YtG+Tk5GpWrVrlTzaGhIQEf/Xq1TtmzJhx xtfXd29bm0/A4XDwGTNmnNmzZ88yFBN0V69evYOJyfl79uxZ1rFjx0q6+xEX+vr6H8iuGkdmXxaU Xrx4McjS0vJ2WVmZSkv/bmpqmjRlypSLFhYW8d26dfskLy//va6uTqagoEAzMTFx7LVr1yZev37d AReYk1VVVaXo4uIScevWLSsmFmMAwjl37pzrqFGjHnp6eh5kOxc6jRs37q6amto3wdsrKiqUKioq lD58+KD/q7O9ycnJxmPGjLmXmJg4ls4VIVHAcZwTHBzs9av75Ofna126dMl5+vTp4Uzl9SuDBg16 8btcUlNTh2dnZ+s2v23EiBEpPXv2/PirdlpaWvkocmxr3r9/38fc3PxOUVGRRkv/Pnz48FQXF5cI KyurWz169MhRUFCorq+vly4sLOySlJRkGhkZ6Xj16tVJgnOIamtrZWfOnBmmpKRUYW9vf4OZR0Me j8fjuri4RKSlpRm22/cKG+O7qqqqFLp165aL0TTGsungcDj8wMBAH1R5X7t2zbFHjx4fUeTG9hyP oUOHPn78+PFQVM/N+vXr/6H79cQwDLe1tY1he3wim0dLczwOHTq0kO28yBwlJSVqrX0P6OvrZwg7 Vvrp06eGI0eOTG4pjqqq6rf379/3Zvux4nj7nuPR/OByuT+SkpJMiMYWpzkeDx8+NP5du6ysLN0j R44sGDp06OPWnqvhw4en1NXVSbP9GH91REdH2wvz3W1kZPSE7VyJHB4eHiGCjyEkJMSD7bxaO0R5 jkdlZaVinz593rX0vujevXvO1atXJwoT59WrV/3NzMzuthRHUVGxMj09fRDbjxXHW5/j0fwwNjZ+ WF9f34FIXJjjQYGCgkL14cOHF9LdD47jnKVLlwauXr16B4p4jo6OkRkZGb1DQ0Nniev8gkGDBr2I iIhwQbUMLY7jnOXLl+/+999/16PI71fk5ORq9u/fv4TufgAzFi9efODTp0/dBG8fPXr0/ZSUlBE2 NjZxwsQxNDRMS0xMHOvu7n5a8N9KS0tVp06deqGhoYHxq7ugZU1n/AoKCjTZzoVNurq62QsWLDj6 +PHjYTExMXYtnf1MTU0dzsR3KxUtrVg1derUC4Krqz19+tQoOTnZmLnMgKhYsWLFrpZWUBw6dOiT lJSUERMnTrwmTJz+/fu/vnXrltWiRYsOCf5bVVWV4pQpUy7+amUsUZKcnGzcboeMs1n1uLu7h2EM nCXHMAz38/PbiXIFnx8/fnBPnjw5W19fP4NMPkxf8Rg5cmTyjRs37FC+fjweT2rOnDknmHoN9+3b 58V2pc720VaueCQmJo5p6TU2MjJ6UltbK0MmJp/P57i6up5tKe7BgwcXsf2Y4YrH/z7MzMzuElmB sK1d8RA8SkpK1Pr16/daMJa0tHTd58+fddh+nC0dr1+/7sfhcPiCOb98+XKAj49PoODtLi4uF9jO WdgDrnigOZ49ezZYQkKiUTC3P//8801lZaUi2bgLFy481NL3yvbt21ez/ZiFueLRdISFhbkLGxeu eCAQHBzsxdRazAEBAX5Tpky52HwdeCq4XC5v9uzZIe/eveublJRkumDBgqNycnI1KGKjoqSkVLFg wYKjTWeaUO7OXl1drTBx4sRrJ0+enIMq5q9YW1vfXLJkyX4m+gL02759+xrB29TU1L5duXLFSUZG po5MTA6Hgx8/fnze4MGDnwv+m7+//yrBscGAGYqKilUTJkyIErw9ISHBbO3atdvYyEkUqampfYuN jbUVnG9XX18vLapXegMDA5fiAvOrrK2tbw4YMOCVj49PkOBCMpcvX54sCnuvAObs2LFjNZ/P/1+/ NRUUFKqvXr06icqeQ/v27fM2MTF5IHj7nj17loniVQ9HR8fIlhbv8fT0PPjff//9yUZObGG18FBS Uqo4c+bMDLpXuWpy+fLlyRYWFvGtTW4iQ0JCgm9iYvLgyJEjf3358kUnODjYy8zMLIHL5fJQ9UGE goJC9YQJE6LOnj3rVlhY2OXIkSN/GRoapqHsIycnp4exsXHyjRs37FHGbY26unpxaGjoLLYnQgM0 8vLytOPj4y0Eb1+zZs32rl27fqYSW1ZWtjYwMHCp4O25ubnd7969O45KbEAOh8PBz5w5M6Nv377v BP9t165dKy5evDiFjbxEUdeuXT+3NDQ4PDx8uuAPfLZ9/fq189mzZ90Eb/fx8QnCsJ8bXApuGtnY 2Ch56NChRUzlCNhVVlam0tLqgr6+vnt79+6dQSU2l8vlBQYGLhX8XfD169fO0dHR46nEpkO/fv3e HD9+fJ7g7dXV1QqTJk26KrgZbFvGauGBYRg2atSoh0zuupicnGw8ZMiQZw8fPhyFOraKikrZkiVL 9t+9e3fct2/f1K5cueK0YMGCo7q6utmo+2oiKSnZ2L9//9fLly/fHR8fb1FSUtIpMjLS0dXV9RzZ M8e/EhcXZ2NkZPT01atXA1DHbgmHw8FPnjw5R0NDo4iJ/gD9oqOjxwtefVBVVS1FtdLR6NGj748a Neqh4O3Xr193QBEfEKeoqFgVERHhInhVGMdxzpw5c062tzN+v+Lp6XlQ8Ezwp0+furU0Rp5Nhw8f Xig4gqB3794Zzfe/Wrp0aaBgu2PHjs2vrq5WYCJHwK6bN29a19fXSze/TU5OrmbZsmV7UMQ3NDRM s7W1jRW8XVS/66dOnXrB29t7n+DtGRkZvWfNmhUqaicX6MJ64YFhGLZhw4YtlpaWt5nqLz8/X8vM zCxh7969vnS90IqKilWTJk26euTIkb+ysrL0SktLVe/cuWO+e/fu5TNmzDhD9oqIiopK2fz5848d PHjQMzk52biiokLp1atXA3bt2rXC3Nz8jjBrX5PR2NgouWnTpk329vY3frVeO2pr167dJg5L5AHh tbS5pI2NTRzK/XIcHR0jhekXMGfAgAGvWtpIrrq6WsHJyekK2Y0j2xpZWdnalpaAfvbs2RA28mkJ j8fjtrR0+tKlSwMlJCT4Tf89duzYRMENacvLy5VDQ0NnMZEnYFdL37lmZmYJysrK5aj6aOm7PjU1 dTiq+Kjt2rVrhampaZLg7ZGRkY4BAQF+bOTENJFY6UVSUrLx/Pnz04yMjJ4yNf6Tx+Nxly1btufG jRv2p06d8tDR0flCZ38qKipl48aNuztu3Li7VOIMGDDg1dGjRxegyksYubm53d3d3U8zvemNhYVF /ObNmzcy2ac4Kioq0nj37l1fIm26dOlSiPLLn4j8/Hwtwduofi4EtfTDLS8vTxtlH4A4V1fXc/fv 3x8t+KP1/fv3fWbNmhV65coVJxhSiWHGxsbJgsNFRGlDwfPnz08T/DypqKiUzZw5M0zwvj4+PkGz Z88OaX5bUFCQz6JFiw41L1JA28PWd/2XL190UPaBEpfL5UVERLgMGTLkmeDKfmvXrt1mYPD/2rvz qCautgHgkwAJS8CAyGaDIIJFWYQiIBSlgrb0iEVRFHwVsAq4VMVaxJVYBTc+BawL+MpWtWqpIPaI ClREBFQExCp9EXkJtGCQTdYAIfP94eGcfPMNyBJyk/j8zrn/XJg7z00mk3kmd+6dVbpw4cK7qOIT B4n4xQPD3g+1uHbtmtd4DA8aSnZ2toulpeWz5OTkNeLcrzQQCATU2NjYQHNz8+fiTjoMDQ3/e+XK lZXiev5HmrHZbLapqWn5SMrVq1dXoIqXbBpVUSf+kydP/odY19DQoEV8yBGI36lTp75zcHDIJ9an paV5nDx5MhhFTJJGR0fnDbHu7du3k1DEQoZswcCAgIA4FRWVTmK9t7f3L8T+vHr1yvjWrVtfj2eM AD1U5/rOzk4VSR7Op6Oj8+by5cs+8vLyfOH6/v5+OR8fn8vV1dUGiEITC4n6EraxsSlKTk5eI+47 Xs3NzRq+vr5J8+bNuz/SO8ey6tWrV8aurq5ZQUFB59rb21XFuW81NbW2tLQ0D7KVf4H0a21tZRLr 1NXVW0S5D7L2+Hy+PAznQU9BQaHvypUrK4mzN2EYhu3cufPo/fv356GIS5KQnfuGWulcnHJzc+c+ efJktnCdvLw8f7BntOh0ek9gYGAssZ5sEgggW8RxrmcwGB1kQ9fFOSR8NJydnXPI1uhpamqauHLl yivEZ2NkiUQlHhiGYcuXL//14MGD+1DsOzc3d66VlVXJrl27Dn+sFygtLS3qwcHBJ2fOnPni3r17 X4h7/zQarTc1NXWJhYVFmbj3DcSDbIgX2RfUWLS0tKgT6+Tl5flqamptotwPGB0Wi1VL9osmn8+X X7FixdWPfVhcV1eXMrFOUo5dsoTB09PzN319/ZrBttm4ceMZ4miG7Oxsl2fPnlmOR4xAMojjXN/R 0cHo6+tTINZraGg0i3I/4yEkJOSYp6fnb8T6R48e2YnqAXxJJHGJB4Zh2J49e8L9/PwSUeybx+Mp HjlyJNTExKTizJkzG3t7e2ko4hA3Ho+nGB0dvdXY2PhVVFTUNrIP8nijUCh4XFxcgKjHgALJQjZD majHr5ONLdbU1GxEOaZc1PsmW41dmsbMu7i4ZIeFhR0g1nO5XO1ly5alfCznXjJkw6rIfiESt+rq aoP09PTFxPqBKXQHo6Wl1eDt7f0LsT4mJmaLKOMDkgXVuV5JSal7LGuEiAuFQsETEhL8TU1Ny4l/ O3PmzMaEhAR/FHGNN4l4uJxMXFxcQFNT00RU06JxuVztTZs2nT569OjOXbt2HV67dm08jUbrRRHL eOLxeIrnz59ff/To0Z2o7zIeO3YsxNfXNwllDNJo2bJlKXPmzCkYyTZkY+zFRU9Pr45Y9+DBAyey B1NHi2y4DtlYYHEiu/s32ln1+Hy+fGdnp4pwHY1G6yUbYy/J9u7de6i4uNg6LS3NQ7i+sLDQ/ocf fjgeHR29FVVsKJWXl5sS6yQh8YiJidlCnArbxsamaDjnn+3bt59ITEz0Ez7mL126tCoiImI3TJcu mwY713/33XenRLUPSTzXj8TAVOP29vaFxHP6xo0bz1haWj6ztrYuRhXfeJDYxENBQaEvJSVl2eLF i9Pv3LnzJao4ampq9Dds2HCWzWazg4KCzm3evPknSfgCGKu3b99Oio+PX3vq1KnvUCccGIZhYWFh B3bs2BGJOg5p5OLikh0UFHQOdRzDZWtr+5g4mUNGRoZbf3+/nKgmEyBbtMrW1vaxKNoeLbJx+6Md dlBXV6dHTFo0NDSapW1GqIF1esrKyiyqqqqmCv8tJiZmi7W1dfHHeDOCbIHNmTNnvkARy4D29nbV +Pj4tcT6ysrKaUZGRq+H0waFQsGFj9uenh56bGxs4P79+38UZaxAMpCdc7Oyslx7enroopr6XxLP 9SNlZmb25/nz59f7+PhcFq7n8XiKS5cuvf706dPPZOmZV4kcajWARqP1pqSkLLO3ty9EHQuXy9U+ cOBA2JQpUzh+fn6JDx48cJK2xV5wHKfk5OQ4+/r6Junr69eEhoYekYSkY8eOHZFsNpuNOg4gHm5u bhnEC+R//vlnsqhmlrt///68vLy8z4n1X3/99S1RtD9aZHd1RzvGnfhwL4ZhmK6ubv1o2kJNXV29 5fr160uJiwtiGIZt2LDhbElJiRWKuFApKCiY8+rVK2PhOgaD0WFlZVWCKiYMw7ALFy58S7a6cmtr K7OqqmrqcArZrHKnT5/exOPxFMXTCyBOCxcuvEucuamlpUVdVKvXl5SUWJHNjob6XD8a3t7ev5BN 0MDhcKZ4e3v/QvylUZpJdOKBYe9PuLdv3/7q888/z0MdC4a9f+gvKSnJd+7cubnTp0//T1hY2AFx reI9Ws+ePbPct2/fwWnTplV+8cUX95KTk9dIyok+NDT0yMeyaA54b+rUqVVkCyix2Ww22UPhI9Hb 20sj++VMV1e3XnhFZRTIhqOkpqYuGU1bKSkpy4h1ZKu1SwtLS8tnZAvSdXd3K3l5eV0T9QOpkmzf vn0HiXVubm4Z47U47HAIBALqTz/9tHk82m5oaNBCOb03GD9aWloNZCuLR0RE7B7rsx79/f1ywcHB J4k3gJlMZquHh0faWNpGJSoqahvZeTwzM3NBeHj4HhQxjQscx6WidHR0qLi6umZiGIZLYpk+ffpf 33//feSdO3cWdnV1KaF8rTo7O5UzMjK+2r59+/8YGxtXoH5tBiuHDx8ORX1cSVvZsGHDGeLrePbs 2SDUcY20ZGRkfEV2TCxYsOBuX1+f/GjbDQwMPEfWbmRk5Peo+9zZ2alMo9F6iLHduXNn4Ujaqays NCJrJyUlxRN1H9va2lSJcampqb0b7vbr1q07T/b+ffPNN2lKSkpdwnVMJrMFdX9xHMccHR3ziPE+ fPjQYTRtRURE7CLr/71795xR9jE1NdVjPL8LzM3NywQCAQX1eylc/Pz8EohxJiQk+KGOa7BSWVlp RIzXyMioEnVcDx8+dCB7z+fMmZPP4/Hoo203JCTkKFm7+/bt+xF1n8k+x7t37w4fzrY1NTWsSZMm NRC3p1Kp/V5eXleJ9Xv37j2Iur8jLcgDGEnh8Xj0xYsX30B9wfyhoqSk1DV37tz7oaGhh2/cuLG4 pqaGNZ6vS01NDSstLe2bkJCQo05OTrmKiordqF+DoYqcnBz/zJkzG1AfT9JYZCXxwHEcc3d3Tyc7 Ptzc3G61trZOGElbAoGAEhYWxiZrz9jYuKK7u1sRdX9xHMeWLFlynRifoaFh1XD7y+Px6A4ODg+J bTCZzJZ3796poe7fWBOP7u5uRRsbmyfDOY/IUuLB5/PlwsPDd1Op1H5iW/PmzctB3UdnZ+d7xLjM zc3LXF1dM0dTVFRUOojt5eTkzEPdT+ECiYfoio+PzyWyz7CTk1NuQ0PDpJG0NXCup1AoAmJ7LBar pr29nYG6v2NJPHAcx7Kzs+fLycnxh3MehMRDDIXP58tt3LjxNOqL55EWJpPZ4ujomOfv7x9/4MCB /UlJSWuysrJcSktLLWtraz9pbm5W7+/vpxL72tzcrM7hcPRLSkpmZWZmuiYmJvqy2ewwf3//eAcH h4cTJkxoRd23kRQVFZWOtLS0b1AfR9JaZCnx+Pvvvydra2u/ITtOZs6c+edwL0QqKyuN3NzcbpG1 w2Aw2ouLi61Q93WgFBUVfUYW5+zZsx9zuVytobZtbW2dsHDhwjtk20vCXT4cH3vigeM4xuFw9DU1 Nd8O55yKur84PrbEo6+vT/769etL7OzsCsn6qKSk1PXixYsZKPtXXFxsRYyLTqfz6uvrdUbb5tat W6OIbXp4eKSifi+FCyQeoiuNjY0T9fX1OWTH+LRp017dvn37y+G0w+Fw9D09PVPI2qHT6by8vDxH 1H3F8bEnHjiOY+Hh4buHc00FiYcYS1RU1Fayu0NQJLfo6urWPXnyxAb1sSPNRZYSDxzHsby8PEdl ZeXOwY6ZL7/88nZCQoJfXV2drvB2bW1tqunp6e5r1669QDbsCMPe/zR948aNxaj7SCxkP5dj2PsL 6UOHDu2pqKgwFv5/Doejf+LEieDBkjRdXd26xsbGiaj7NfC+EOMbaeKB4ziWmZnp+qE7fpKceERH R2/JzMx0JZbU1FSPhIQEv4iIiF0eHh6pg72nGIbhFApFkJycvBp1/9asWZNEjM3X1zdxLG1WVVUZ Et9fKpXaX1lZaYS6vwMFEg/RluLiYquhbpQ6Ozvfi4uLW19bW/uJ8HYdHR0qGRkZXwUFBZ0lDrcU /qxcvHhxFeo+DhRRJB4CgYCydOnS3z50XQWJh5hLSkqKU40XKQAACHVJREFUJ4PBaEd9QQ3lw8Xa 2voph8PRR33MSHuRtcQDx9//rKyhodH0oWOITqfzWCxWDdkwDWKh0Wg98fHx/qj7Rlba2tpUTU1N Xw4Vv5KSUtdw+qqgoNArKXf5BvpGjHE0iQeO49hgQ+cGiiQnHmMtVCq1/9SpU5tR943L5WqRDd0V xQ0ksqGWW7dujULd54ECiYfoS0FBgb2Ojk79cM7fLBarZjjXd/Ly8n3R0dFbUPdNuIgi8cBxHGtp aWEaGRlVDtV/aUw8JH5Wq6F4enr+VlRUZDNjxoyXqGMBg1u9evXPDx48cNLX169BHQuQPPPnz/+j tLR0lo2NTdFQ/9fT00Ovra1lERdZItLT06vLyclx9vf3TxBtpKKhqqrafvPmTXcTE5OKwf6nu7tb 6UN9VVRU5CUlJflK82xWQ9m/f/+PZDPiyDotLa2GtLQ0j82bN/+EOhayqW6dnJwefOizOhxbtmyJ IdbFx8evJZuyF8gGe3v7wqdPn372oSUSent7abW1tayOjg7GUP83ceLEpoyMDDeyY0kWMJnM1sGm GpdmUp14YBiGTZ8+/T8FBQVzpHX6NFlGp9N7YmNjA5OTk9fI2gcHiBaLxaq9f//+vJCQkGM0Gq13 NG1QKBR8zZo1ycXFxdYjXcld3IyMjF4/evTIbtGiRb+PZvspU6ZwcnNz53p7e/8i6tgkBZVKFVy6 dGmVoaHhf1HHIg4MBqNjx44dkS9fvpzh7u5+E3U8A4v7EetFdZHn6uqaZWFhUSZcN9gihUB2DNwY CgsLO6CkpNQ92naWL1/+a2lp6SxXV9csUcYnaSwsLMri4uICUMchSlKfeGAYhqmpqbVdv359aWxs bCBc4EoGU1PT8oKCgjkBAQFxqGMB0kFZWbnr6NGjO6uqqqbu2bMn3Nzc/PlwtjM0NPzvpk2bTr94 8WJmUlKSL9lCfZKIyWS23rx50z0rK8vVycnpwXBWHWexWLUxMTFb/vrrr09nz579RBxxojSwuOBY LlAkmZ6eXt3KlSuvJCYm+tXX1+seP378B0lZofjixYv/4nK52sJ1+vr6NaK8ybdp06bTxLro6Oit srRYGvj/6HR6D5vNZldXVxuw2Wy2lZVVyXDPfwEBAXGlpaWzrl275vXJJ5/8LY54UVu1atWlwMDA WNRxiAoFxz/4XkuV8vJy01WrVl362Fa7lRQUCgVfv379+ZMnTwZDEih66enpiwsLC+2F6zw8PNJs bW0fo4ppPNXV1enl5OQ4v3nzRofL5Wq3trYyGQxGh7a2NldbW5vr4OCQb2xs/Ap1nKLw5s0bnezs bJeSkhKrxsZGzaampomqqqrtmpqajVOnTq1ycXHJNjMz+3M4X9Co9PX1KSQkJPgL19FotF4/P7/E sbSbk5PjXFFRYSLqdkUhPT198XAWQ6NSqQImk9nKZDJb1dXVWwwMDKolJckgc/fu3YXV1dUGwnWm pqblZIt/jlZXV5fyxYsX/0Ws9/T0/A31a5Odne3y8uXLGcJ1CxYsyPz000//QhXTUNra2tSSkpJ8 heuYTGbr6tWrf0YV00hwuVztnJwc57q6Or2Ghgat5uZmDRUVlU4tLa0GbW1trp2d3SNpGVZfWlo6 6/Hjx7bCdVZWViVjuVnU09ND//nnn1cLBIL/84PBWNtFQeYSDwx7/wax2Wx2ZGTkDj6fL486no+F gYFB9blz54JQrxANAAAAAAAkj0wmHgPKysos1q9ff56YeQLRolKpgnXr1v07MjJyh6qqajvqeAAA AAAAgOSRiWc8BmNhYVGWn5/vcOLEie0TJkx4hzoeWWRra/u4sLDQPjY2NhCSDgAAAAAAMBiZTjww DMPk5OT6g4ODT1ZVVU3dsmVLjLy8PB91TLJAT0+vLjY2NrCgoGCOtI0vBAAAAAAA4ifTQ63IPH/+ 3Dw0NPTIrVu3vkYdizRSVVVt37ZtW1RISMgxBoPRgToeAAAAAAAgHT66xGPAo0eP7A4dOrT3999/ X4Q6FmmgrKzctW7dun/v3r07QlqmKwUAAAAAAJLjo008BuTn5zscP378h/T09MXEacoAhk2YMOFd UFDQueDg4JOQcAAAAAAAgNH66BOPAVVVVVOjo6O3Xrhw4dvOzk4V1PGgpqOj8yYwMDB227ZtUUwm sxV1PAAAAAAAQLpB4kHQ1tamduXKlZWxsbGBxcXF1qjjEScqlSqYP3/+HwEBAXEeHh5pCgoKfahj AgAAAAAAsgESjyE8efJkdkJCgv+vv/66vLGxURN1POPFyMjotY+Pz+Vvv/32wpQpUzio4wEAAAAA ALIHEo9h4PP58n/88cf8a9eueaWmpi5pbm7WQB3TWLFYrFovL69rK1asuArT4QIAAAAAgPEGiccI 9ff3y5WWls7KyspyvXnzpntBQcEcaXgoXU5Orn/WrFmlixYt+t3d3f2mtbV1MYVCgTcfAAAAAACI BSQeY9TY2KiZn5/vkJeX93l+fr5DUVGRTU9PDx11XCoqKp12dnaPHB0dHzo4OOQ7Ojo+hJXFAQAA AAAAKpB4iFhvby+tvLzc9Pnz5+bPnz83Lysrs3j9+rURh8OZ0tvbSxP1/pSUlLoNDAyqTUxMKszM zP60sLAoMzMz+9PExKQCVmkHAAAAAACSAhIPMREIBNS6ujq96upqg/r6et3GxkbN5uZmjaampomd nZ0qHR0djL6+PoX+/n659vZ21YEpbGk0Wq+Kikqnmppam4aGRvOkSZPeamhoNE+ePPkfAwODalhb AwAAAAAASANIPAAAAAAAAADjTuIfigYAAAAAAABIP0g8AAAAAAAAAOMOEg8AAAAAAADAuIPEAwAA AAAAADDuIPEAAAAAAAAAjDtIPAAAAAAAAADjDhIPAAAAAAAAwLj7Xwk0T7JIydm1AAAAAElFTkSu QmCC "
       id="image41" />
    <text
       xml:space="preserve"
       style="font-style:normal;font-variant:normal;font-weight:normal;font-stretch:normal;font-size:24px;line-height:100px;font-family:FreeMono;-inkscape-font-specification:'FreeMono, Normal';font-variant-ligatures:normal;font-variant-caps:normal;font-variant-numeric:normal;font-feature-settings:normal;text-align:start;letter-spacing:0px;word-spacing:0px;writing-mode:lr-tb;text-anchor:start;fill:none;stroke:#000000;stroke-width:1px;stroke-linecap:butt;stroke-linejoin:miter;stroke-opacity:1"
       x="838.29993"
       y="220.00044"
       id="text47"><tspan
         sodipodi:role="line"
         x="838.29993"
         y="220.00044"
         id="tspan49"
         style="font-style:normal;font-variant:normal;font-weight:normal;font-stretch:normal;font-size:96px;font-family:FreeSerif;-inkscape-font-specification:'FreeSerif, Normal';font-variant-ligatures:normal;font-variant-caps:normal;font-variant-numeric:normal;font-variant-east-asian:normal;text-align:center;text-anchor:middle;fill:#000000;fill-opacity:1">What is phabricator.wikimedia.org?</tspan></text>
    <text
       xml:space="preserve"
       style="font-style:normal;font-variant:normal;font-weight:normal;font-stretch:normal;font-size:24px;line-height:44.4445px;font-family:FreeMono;-inkscape-font-specification:'FreeMono, Normal';font-variant-ligatures:normal;font-variant-caps:normal;font-variant-numeric:normal;font-feature-settings:normal;text-align:start;letter-spacing:0px;word-spacing:0px;writing-mode:lr-tb;text-anchor:start;fill:none;stroke:#000000;stroke-width:1px;stroke-linecap:butt;stroke-linejoin:miter;stroke-opacity:1"
       x="837.5"
       y="380.71573"
       id="text876"><tspan
         sodipodi:role="line"
         id="tspan874"
         x="837.5"
         y="380.71573"
         style="font-style:normal;font-variant:normal;font-weight:normal;font-stretch:normal;font-size:53.3333px;font-family:FreeSerif;-inkscape-font-specification:'FreeSerif, Normal';font-variant-ligatures:normal;font-variant-caps:normal;font-variant-numeric:normal;font-variant-east-asian:normal;text-align:center;text-anchor:middle;fill:#000000;fill-opacity:1">Part of a series of tutorial videos</tspan><tspan
         sodipodi:role="line"
         x="837.5"
         y="433.96021"
         id="tspan878"
         style="font-style:normal;font-variant:normal;font-weight:normal;font-stretch:normal;font-size:53.3333px;font-family:FreeSerif;-inkscape-font-specification:'FreeSerif, Normal';font-variant-ligatures:normal;font-variant-caps:normal;font-variant-numeric:normal;font-variant-east-asian:normal;text-align:center;text-anchor:middle;fill:#000000;fill-opacity:1">about phabricator.wikimedia.org</tspan><tspan
         sodipodi:role="line"
         x="837.5"
         y="487.20471"
         id="tspan880"
         style="font-style:normal;font-variant:normal;font-weight:normal;font-stretch:normal;font-size:53.3333px;font-family:FreeSerif;-inkscape-font-specification:'FreeSerif, Normal';font-variant-ligatures:normal;font-variant-caps:normal;font-variant-numeric:normal;font-variant-east-asian:normal;text-align:center;text-anchor:middle;fill:#000000;fill-opacity:1" /><tspan
         sodipodi:role="line"
         x="837.5"
         y="540.44922"
         id="tspan882"
         style="font-style:normal;font-variant:normal;font-weight:normal;font-stretch:normal;font-size:53.3333px;font-family:FreeSerif;-inkscape-font-specification:'FreeSerif, Normal';font-variant-ligatures:normal;font-variant-caps:normal;font-variant-numeric:normal;font-variant-east-asian:normal;text-align:center;text-anchor:middle;fill:#000000;fill-opacity:1">https://commons.wikimedia.org/wiki/</tspan><tspan
         sodipodi:role="line"
         x="837.5"
         y="593.69366"
         style="font-style:normal;font-variant:normal;font-weight:normal;font-stretch:normal;font-size:53.3333px;font-family:FreeSerif;-inkscape-font-specification:'FreeSerif, Normal';font-variant-ligatures:normal;font-variant-caps:normal;font-variant-numeric:normal;font-variant-east-asian:normal;text-align:center;text-anchor:middle;fill:#000000;fill-opacity:1"
         id="tspan884">Category:Phabricator_Tutorial_Series</tspan></text>
  </g>
</svg>
